Data Wrangling and Statistical Programming for NYPD Arrest Data (Year-to-Date) - Beta
…
Crime classification is structural, while chronology is observational. Hence, crime classification must be independent of chronology. Chronology must be layered after classification. Group variables are created without using time. Time variables are layered after classification. This avoids circular logic (e.g., letting reporting delays distort offense trends).

2. Classification (The “What”)

Observing the level of granularity or detailed crimes descriptions.

library(dplyr)

# PD_DESC counts
counts_PD_DESC <- NYPD_Arrest_Data_Year_to_Date_20260121 |>
  count(PD_DESC, sort = TRUE)

print(counts_PD_DESC, n=20)

# A tibble: 257 × 2
   PD_DESC                                       n
   <chr>                                     <int>
 1 ASSAULT 3                                 22272
 2 LARCENY,PETIT FROM OPEN AREAS,            20987
 3 THEFT OF SERVICES, UNCLASSIFIE            12146
 4 ASSAULT 2,1,UNCLASSIFIED                  11933
 5 TRAFFIC,UNCLASSIFIED MISDEMEAN            11081
 6 CONTROLLED SUBSTANCE, POSSESSI             9668
 7 PUBLIC ADMINISTRATION,UNCLASSI             8810
 8 ROBBERY,OPEN AREA UNCLASSIFIED             8399
 9 LARCENY,GRAND FROM OPEN AREAS, UNATTENDED  6457
10 MENACING,UNCLASSIFIED                      5253
11 BURGLARY,UNCLASSIFIED,UNKNOWN              4695
12 CRIMINAL MIS 2 & 3                         4268
13 CONTROLLED SUBSTANCE,INTENT TO             3843
14 CHILD, ENDANGERING WELFARE                 3437
15 FORGERY,ETC.,UNCLASSIFIED-FELO             3436
16 NY STATE LAWS,UNCLASSIFIED VIO             3223
17 AGGRAVATED HARASSMENT 2                    3126
18 STRANGULATION 1ST                          3059
19 CRIMINAL MISCHIEF,UNCLASSIFIED 4           3040
20 WEAPONS, POSSESSION, ETC                   2976
# ℹ 237 more rows

# OFNS_DESC counts
counts_OFNS_DESC <- NYPD_Arrest_Data_Year_to_Date_20260121 |>
  count(OFNS_DESC, sort = TRUE)

print(counts_OFNS_DESC, n=20 )

# A tibble: 61 × 2
   OFNS_DESC                           n
   <chr>                           <int>
 1 ASSAULT 3 & RELATED OFFENSES    30096
 2 PETIT LARCENY                   20987
 3 FELONY ASSAULT                  17370
 4 DANGEROUS DRUGS                 17248
 5 MISCELLANEOUS PENAL LAW         14060
 6 OTHER OFFENSES RELATED TO THEFT 12499
 7 VEHICLE AND TRAFFIC LAWS        11554
 8 CRIMINAL MISCHIEF & RELATED OF   9185
 9 ROBBERY                          8444
10 DANGEROUS WEAPONS                8255
11 GRAND LARCENY                    7933
12 OFFENSES AGAINST PUBLIC ADMINI   7824
13 OTHER STATE LAWS                 5638
14 BURGLARY                         5312
15 SEX CRIMES                       4797
16 OFF. AGNST PUB ORD SENSBLTY &    4037
17 FORGERY                          3471
18 POSSESSION OF STOLEN PROPERTY    2906
19 CRIMINAL TRESPASS                2483
20 OFFENSES INVOLVING FRAUD         2442
# ℹ 41 more rows
…
  mapping <- df_clean |>
    distinct(.data[[col]]) |>
    arrange(.data[[col]]) |>
    mutate(code = row_number())
  
  mapping_list[[col]] <- mapping
  
  encoded_df <- encoded_df |>
    left_join(mapping, by = setNames(col, col)) |>
    rename(!!paste0(col, "_code") := code)
}

encoded_df

# A tibble: 120,608 × 28
   ARREST_KEY ARREST_DATE PD_CD PD_DESC      KY_CD OFNS_DESC LAW_CODE LAW_CAT_CD
        <dbl> <date>      <dbl> <chr>        <dbl> <chr>     <chr>    <chr>     
 1  299030225 2025-01-07    105 STRANGULATI…   106 FELONY A… PL 1211… F         
 2  299533742 2025-01-16    155 RAPE 2         104 RAPE      PL 1303… F         
 3  299782079 2025-01-21    105 STRANGULATI…   106 FELONY A… PL 1211… F         
 4  299961366 2025-01-24    153 RAPE 3         104 RAPE      PL 1302… F         
 5  300834409 2025-02-10    263 ARSON 2,3,4    114 ARSON     PL 1501… F         
 6  301585673 2025-02-24    157 RAPE 1         104 RAPE      PL 1303… F         
 7  301740224 2025-02-26    847 NY STATE LA…   125 OTHER ST… VTL0511… F         
 8  302767435 2025-03-13    105 STRANGULATI…   106 FELONY A… PL 1211… F         
 9  303976241 2025-04-01    153 RAPE 3         104 RAPE      PL 1302… F         
10  304022842 2025-04-01    153 RAPE 3         104 RAPE      PL 1302… F         
# ℹ 120,598 more rows
# ℹ 20 more variables: ARREST_BORO <chr>, ARREST_PRECINCT <dbl>,
#   JURISDICTION_CODE <dbl>, AGE_GROUP <chr>, PERP_SEX <chr>, PERP_RACE <chr>,
#   X_COORD_CD <dbl>, Y_COORD_CD <dbl>, Latitude <dbl>, Longitude <dbl>,
#   Location <chr>, CRIME_FAMILY <chr>, YEAR <dbl>, SEASON <chr>,
#   CRIME_FAMILY_code <int>, SEASON_code <int>, PERP_SEX_code <int>,
#   PERP_RACE_code <int>, AGE_GROUP_code <int>, ARREST_BORO_code <int>
…
Standard Deviation: Not appropriate for the same reason the mean isn’t.

Visualization

Bar Charts: Excellent for showing frequencies or percentages across ordered categories.

Pie Charts: Can show proportions but become cluttered with many categories.

Development of the descriptive statistics and primitive models for the ordinal variables in the dataset:

# Identifying the mapping rules
print(mapping_df, n=6)

# A tibble: 29 × 3
  variable    value  code
  <chr>       <chr> <int>
1 AGE_GROUP   18-24     1
2 AGE_GROUP   25-44     2
3 AGE_GROUP   45-64     3
4 AGE_GROUP   65+       4
5 AGE_GROUP   <18       5
6 ARREST_BORO B         1
# ℹ 23 more rows
…
# A tibble: 6 × 2
  CRIME_FAMILY_code     n
              <int> <int>
1                 5 33681
2                 3 31660
3                 4 30143
4                 1 12756
5                 2  7430
6                 6  4938

# Joint distribution example 1
data_stat_analy |>
  count(CRIME_FAMILY_code, SEASON_code, sort = TRUE)

# A tibble: 24 × 3
   CRIME_FAMILY_code SEASON_code     n
               <int>       <int> <int>
 1                 5           3 16794
 2                 3           3 13593
 3                 4           3 12596
 4                 3           2 10359
 5                 4           2  9625
 6                 5           2  9470
 7                 4           4  6698
 8                 3           4  6256
 9                 5           4  5801
10                 1           3  4998
# ℹ 14 more rows

# Joint disitribution example 2
data_stat_analy |>
  count(CRIME_FAMILY_code, ARREST_BORO_code, sort = TRUE)

# A tibble: 30 × 3
   CRIME_FAMILY_code ARREST_BORO_code     n
               <int>            <int> <int>
 1                 3                2 10440
 2                 4                3  9685
 3                 5                2  9297
 4                 3                4  8972
 5                 5                4  8577
 6                 5                1  7471
 7                 4                2  7156
 8                 5                3  6862
 9                 4                4  6788
10                 3                1  5196
# ℹ 20 more rows
…
